{
    "success": true,
    "lots": [
        {"ID": 1,"LAST_DATE": "25.01.2012", "LOT": "3958","ADDRESS": "8 Марта, 5", "NAME": "Альбатрос", "PRICE_RUB": "16000 RUB", "AREA": "250","METRO_SATATION": "Аэропорт", "DIRECTON": "Ленинградское", "BUILDING_CLASS": "B+","OUR_PERCENT": "50%", "READY_VALUE": "Май 2013"},
        {"ID": 2,"LAST_DATE": "18.02.2013", "LOT": "3959","ADDRESS": "Тверская, 16с1", "NAME": "Галерея Актёр", "PRICE_RUB": "25000 RUB", "AREA": "120","METRO_SATATION": "Тверская", "DIRECTON": "Ленинградское", "BUILDING_CLASS": "A+","OUR_PERCENT": "100%", "READY_VALUE": "Готов к въезду"},
        {"ID": 3,"LAST_DATE": "25.01.2012", "LOT": "3960","ADDRESS": "8 Марта, 5", "NAME": "Альбатрос", "PRICE_RUB": "16000 RUB", "AREA": "250","METRO_SATATION": "Аэропорт", "DIRECTON": "Ленинградское", "BUILDING_CLASS": "B+","OUR_PERCENT": "50%", "READY_VALUE": "Май 2013"},
        {"ID": 4,"LAST_DATE": "18.02.2013", "LOT": "3961","ADDRESS": "Тверская, 16с1", "NAME": "Галерея Актёр", "PRICE_RUB": "25000 RUB", "AREA": "120","METRO_SATATION": "Тверская", "DIRECTON": "Ленинградское", "BUILDING_CLASS": "A+","OUR_PERCENT": "100%", "READY_VALUE": "Готов к въезду"},
        {"ID": 5,"LAST_DATE": "25.01.2012", "LOT": "3962","ADDRESS": "8 Марта, 5", "NAME": "Альбатрос", "PRICE_RUB": "16000 RUB", "AREA": "250","METRO_SATATION": "Аэропорт", "DIRECTON": "Ленинградское", "BUILDING_CLASS": "B+","OUR_PERCENT": "50%", "READY_VALUE": "Май 2013"},
        {"ID": 6,"LAST_DATE": "18.02.2013", "LOT": "3963","ADDRESS": "Тверская, 16с1", "NAME": "Галерея Актёр", "PRICE_RUB": "25000 RUB", "AREA": "120","METRO_SATATION": "Тверская", "DIRECTON": "Ленинградское", "BUILDING_CLASS": "A+","OUR_PERCENT": "100%", "READY_VALUE": "Готов к въезду"},
        {"ID": 10,"LAST_DATE": "18.02.2013", "LOT": "3967","ADDRESS": "Тверская, 16с1", "NAME": "Галерея Актёр", "PRICE_RUB": "25000 RUB", "AREA": "120","METRO_SATATION": "Тверская", "DIRECTON": "Ленинградское", "BUILDING_CLASS": "A+","OUR_PERCENT": "100%", "READY_VALUE": "Готов к въезду"},
        {"ID": 11,"LAST_DATE": "25.01.2012", "LOT": "3968","ADDRESS": "8 Марта, 5", "NAME": "Альбатрос", "PRICE_RUB": "16000 RUB", "AREA": "250","METRO_SATATION": "Аэропорт", "DIRECTON": "Ленинградское", "BUILDING_CLASS": "B+","OUR_PERCENT": "50%", "READY_VALUE": "Май 2013"},
        {"ID": 12,"LAST_DATE": "18.02.2013", "LOT": "3969","ADDRESS": "Тверская, 16с1", "NAME": "Галерея Актёр", "PRICE_RUB": "25000 RUB", "AREA": "120","METRO_SATATION": "Тверская", "DIRECTON": "Ленинградское", "BUILDING_CLASS": "A+","OUR_PERCENT": "100%", "READY_VALUE": "Готов к въезду"},
        {"ID": 7,"LAST_DATE": "25.01.2012", "LOT": "3964","ADDRESS": "8 Марта, 5", "NAME": "Альбатрос", "PRICE_RUB": "16000 RUB", "AREA": "250","METRO_SATATION": "Аэропорт", "DIRECTON": "Ленинградское", "BUILDING_CLASS": "B+","OUR_PERCENT": "50%", "READY_VALUE": "Май 2013"},
        {"ID": 8,"LAST_DATE": "18.02.2013", "LOT": "3965","ADDRESS": "Тверская, 16с1", "NAME": "Галерея Актёр", "PRICE_RUB": "25000 RUB", "AREA": "120","METRO_SATATION": "Тверская", "DIRECTON": "Ленинградское", "BUILDING_CLASS": "A+","OUR_PERCENT": "100%", "READY_VALUE": "Готов к въезду"},
        {"ID": 9,"LAST_DATE": "25.01.2012", "LOT": "3966","ADDRESS": "8 Марта, 5", "NAME": "Альбатрос", "PRICE_RUB": "16000 RUB", "AREA": "250","METRO_SATATION": "Аэропорт", "DIRECTON": "Ленинградское", "BUILDING_CLASS": "B+","OUR_PERCENT": "50%", "READY_VALUE": "Май 2013"},
        
        
    ]
}